<?xml version="1.0" encoding="utf-8"?>
<!-- Generator: Adobe Illustrator 18.0.0, SVG Export Plug-In . SVG Version: 6.00 Build 0)  -->
<!DOCTYPE svg PUBLIC "-//W3C//DTD SVG 1.1//EN" "http://www.w3.org/Graphics/SVG/1.1/DTD/svg11.dtd">
<svg version="1.1" id="Слой_1" xmlns="http://www.w3.org/2000/svg" xmlns:xlink="http://www.w3.org/1999/xlink" x="0px" y="0px"
	 viewBox="0 0 10 20" enable-background="new 0 0 10 20" xml:space="preserve">
<g>
	<path fill="#FFFFFF" d="M9.8,9.1L0.9,0.2c-0.2-0.2-0.5-0.2-0.8,0s-0.2,0.5,0,0.8l8.5,8.5L0.2,18c-0.2,0.2-0.2,0.5,0,0.8
		c0.1,0.1,0.2,0.2,0.4,0.2c0.1,0,0.3-0.1,0.4-0.2l8.9-8.9C10.1,9.6,10.1,9.3,9.8,9.1z"/>
</g>
</svg>
