<?xml version="1.0" encoding="utf-8"?>
<!-- Generator: Adobe Illustrator 18.0.0, SVG Export Plug-In . SVG Version: 6.00 Build 0)  -->
<!DOCTYPE svg PUBLIC "-//W3C//DTD SVG 1.1//EN" "http://www.w3.org/Graphics/SVG/1.1/DTD/svg11.dtd">
<svg version="1.1" id="Layer_1" xmlns="http://www.w3.org/2000/svg" xmlns:xlink="http://www.w3.org/1999/xlink" x="0px" y="0px"
	 viewBox="0 0 40 40" enable-background="new 0 0 40 40" xml:space="preserve">
<g>
	<g>
		<path fill="#FFFFFF" d="M34,6v28H6V6H34 M36,4H4v32h32V4L36,4z"/>
	</g>
	<g>
		<path fill="#FB8C00" d="M24.3,22.3c0,0.9-0.3,1.6-1,2.1c-0.6,0.6-1.6,0.9-2.7,1v1.9h-1.2v-1.9c-1.5,0-2.7-0.3-3.7-0.7V23
			c0.5,0.3,1.1,0.5,1.8,0.6c0.7,0.2,1.3,0.3,1.8,0.3v-3.4l-0.8-0.3c-1-0.4-1.7-0.8-2.2-1.4c-0.5-0.5-0.7-1.2-0.7-1.9
			c0-0.8,0.3-1.5,1-2c0.6-0.5,1.5-0.9,2.6-1v-1.5h1.2v1.5c1.2,0,2.4,0.3,3.5,0.7l-0.7,1.6c-0.9-0.4-1.9-0.6-2.8-0.7v3.3l0.7,0.3
			c1.1,0.4,1.9,0.9,2.4,1.4C24.1,21,24.3,21.6,24.3,22.3z M17.9,16.9c0,0.3,0.1,0.6,0.3,0.9c0.2,0.2,0.6,0.5,1.2,0.7v-2.8
			c-0.5,0.1-0.8,0.2-1.1,0.4C18,16.3,17.9,16.6,17.9,16.9z M22.2,22.4c0-0.3-0.1-0.6-0.4-0.9c-0.2-0.2-0.6-0.4-1.2-0.7v2.9
			C21.6,23.6,22.2,23.2,22.2,22.4z"/>
	</g>
</g>
</svg>
