<?xml version="1.0" encoding="utf-8"?>
<!-- Generator: Adobe Illustrator 18.0.0, SVG Export Plug-In . SVG Version: 6.00 Build 0)  -->
<!DOCTYPE svg PUBLIC "-//W3C//DTD SVG 1.1//EN" "http://www.w3.org/Graphics/SVG/1.1/DTD/svg11.dtd">
<svg version="1.1" id="Layer_1" xmlns="http://www.w3.org/2000/svg" xmlns:xlink="http://www.w3.org/1999/xlink" x="0px" y="0px"
	 viewBox="0 0 40 40" enable-background="new 0 0 40 40" xml:space="preserve">
<g>
	<g>
		<g>
			<path d="M35,18.6L20.6,5.7c0,0-0.1,0-0.1-0.1c-0.3-0.3-0.8-0.3-1.2,0L5,18.5c-0.4,0.3-0.4,0.9-0.1,1.2C5.1,19.9,5.3,20,5.5,20
				c0.2,0,0.4-0.1,0.6-0.2l2.6-2.3v0.5v6.7v7.8c0,1.2,1,2.1,2.1,2.1c0,0,0,0,0.1,0s0,0,0.1,0h18.2c1.2,0,2.1-1.2,2.1-2.7v-7v-2.1
				v-5.3l2.6,2.3c0.2,0.1,0.4,0.2,0.6,0.2c0.2,0,0.5-0.1,0.6-0.3C35.4,19.4,35.4,18.9,35,18.6z M29.6,22.8v2.1v7c0,0.6-0.3,1-0.4,1
				l-18.2,0c0,0,0,0-0.1,0c0,0,0,0-0.1,0c-0.2,0-0.4-0.2-0.4-0.4v-7.9v-6.7v-2L20,7.4l9.6,8.6L29.6,22.8L29.6,22.8z"/>
		</g>
	</g>
	<g>
		<path d="M23.8,24.7c0,0.8-0.3,1.4-0.8,1.9c-0.6,0.5-1.4,0.8-2.4,0.9v1.7h-1v-1.7c-1.3,0-2.4-0.2-3.2-0.6v-1.7
			c0.5,0.2,1,0.4,1.6,0.6c0.6,0.1,1.1,0.2,1.6,0.2v-2.9l-0.7-0.2c-0.9-0.3-1.5-0.7-1.9-1.2c-0.4-0.5-0.6-1-0.6-1.7
			c0-0.7,0.3-1.3,0.8-1.8c0.6-0.5,1.3-0.7,2.3-0.8V16h1v1.3c1.1,0,2.1,0.3,3,0.6L23,19.4c-0.8-0.3-1.6-0.5-2.5-0.6v2.9l0.6,0.2
			c1,0.4,1.7,0.8,2.1,1.2C23.6,23.5,23.8,24,23.8,24.7z M18.2,19.9c0,0.3,0.1,0.5,0.3,0.7c0.2,0.2,0.5,0.4,1,0.6v-2.4
			c-0.4,0.1-0.7,0.2-1,0.4C18.3,19.4,18.2,19.6,18.2,19.9z M21.9,24.8c0-0.3-0.1-0.6-0.3-0.8c-0.2-0.2-0.6-0.4-1.1-0.6V26
			C21.4,25.8,21.9,25.4,21.9,24.8z"/>
	</g>
</g>
</svg>
