<?xml version="1.0" encoding="utf-8"?>
<!-- Generator: Adobe Illustrator 18.0.0, SVG Export Plug-In . SVG Version: 6.00 Build 0)  -->
<!DOCTYPE svg PUBLIC "-//W3C//DTD SVG 1.1//EN" "http://www.w3.org/Graphics/SVG/1.1/DTD/svg11.dtd">
<svg version="1.1" id="Layer_1" xmlns="http://www.w3.org/2000/svg" xmlns:xlink="http://www.w3.org/1999/xlink" x="0px" y="0px"
	 viewBox="0 0 40 40" enable-background="new 0 0 40 40" xml:space="preserve">
<g>
	<line fill="none" stroke="#FFFFFF" stroke-width="2" stroke-miterlimit="10" x1="31" y1="5" x2="31" y2="35"/>
	<line fill="none" stroke="#00AED3" stroke-width="2" stroke-miterlimit="10" x1="35" y1="9" x2="5" y2="9"/>
	<line fill="none" stroke="#00AED3" stroke-width="2" stroke-miterlimit="10" x1="35" y1="31" x2="5" y2="31"/>
	<line fill="none" stroke="#FFFFFF" stroke-width="2" stroke-miterlimit="10" x1="9" y1="5" x2="9" y2="35"/>
</g>
</svg>
